…
# Write and read csv back in
file_name <- here(glue("data/covid_19_{Sys.Date()}.csv"))
write_csv(df, file_name)

# Redefining na  so NA gets encoded as the country_code for Namibia
df <- read_csv(file_name, na = "NaN")
df

## # A tibble: 26,492 x 7
##    case_type country     date       cases n_days continent country_code
##    <chr>     <chr>       <date>     <dbl>  <dbl> <chr>     <chr>       
##  1 confirmed Afghanistan 2020-01-22     0    -73 Asia      AF          
##  2 confirmed Afghanistan 2020-01-23     0    -72 Asia      AF          
##  3 confirmed Afghanistan 2020-01-24     0    -71 Asia      AF          
##  4 confirmed Afghanistan 2020-01-25     0    -70 Asia      AF          
##  5 confirmed Afghanistan 2020-01-26     0    -69 Asia      AF          
##  6 confirmed Afghanistan 2020-01-27     0    -68 Asia      AF          
##  7 confirmed Afghanistan 2020-01-28     0    -67 Asia      AF          
##  8 confirmed Afghanistan 2020-01-29     0    -66 Asia      AF          
##  9 confirmed Afghanistan 2020-01-30     0    -65 Asia      AF          
## 10 confirmed Afghanistan 2020-01-31     0    -64 Asia      AF          
## # ... with 26,482 more rows
…
